{
  "count": 10,
  "prev": "xx",
  "next": "xxx",
  "first": "xxx",
  "last": "xxx",
  "items": [{
	"duration": {
		"start": 34324,
		"end": 3424
	},
	"from_locale": "beijing",
	"target": {
		"id": "xxx",
		"phone_number": 1236879,
		"card_locale": "beijing"
	},
	"communication_type": "LOCAL | INTERNAL | INTERNATIONAL",
	"call_type": "CALLER | CALLEE",
	"fee": 8098,
	"links": [{
		"rel": "self",
		"uri": "/users/uid/calls/callId"
	}]
}]}